[gd_scene load_steps=5 format=2]

[ext_resource path="res://Objects/WorldComplete.tscn" type="PackedScene" id=1]
[ext_resource path="res://Objects/Player.tscn" type="PackedScene" id=2]
[ext_resource path="res://DirtAutoTiles.tres" type="TileSet" id=3]
[ext_resource path="res://Objects/DeathBarrier.tscn" type="PackedScene" id=4]

[node name="World" type="Node2D"]

[node name="Player" parent="." instance=ExtResource( 2 )]
position = Vector2( -320, 224 )

[node name="WorldComplete" parent="." instance=ExtResource( 1 )]
position = Vector2( 544, 96 )
next_level = "res://Worlds/World2.tscn"

[node name="TileMap" type="TileMap" parent="."]
tile_set = ExtResource( 3 )
format = 1
tile_data = PoolIntArray( 65545, 0, 5, 131073, 0, 196608, 131074, 0, 196610, 131079, 0, 1, 131080, 0, 65536, 131081, 0, 11, 262137, 0, 5, 196615, 0, 131073, 196616, 0, 196619, 196617, 0, 131074, 327673, 0, 8, 327674, 0, 65536, 327675, 0, 65536, 327676, 0, 2, 262151, 0, 131073, 262152, 0, 196619, 262153, 0, 131074, 393209, 0, 65537, 393210, 0, 131072, 393211, 0, 131072, 393212, 0, 65547, 393213, 0, 196609, 393214, 0, 196609, 393215, 0, 196609, 327680, 0, 196609, 327681, 0, 196609, 327682, 0, 196609, 327683, 0, 196609, 327684, 0, 196609, 327685, 0, 196609, 327686, 0, 196609, 327687, 0, 65544, 327688, 0, 131072, 327689, 0, 65538 )

[node name="DeathBarrier" parent="." instance=ExtResource( 4 )]
position = Vector2( -768, 512 )
scale = Vector2( 3.169, 1 )
